-------------------------------------------------------------------------------
Test set: com.demo.moneytransferapi.controller.TestTransferController
-------------------------------------------------------------------------------
Tests run: 1, Failures: 0, Errors: 0, Skipped: 0, Time elapsed: 0.13 sec
