com/demo/moneytransferapi/utils/MoneyTransferAPIHelper.class
com/demo/moneytransferapi/controller/AccountHolderController.class
com/demo/moneytransferapi/dao/Account.class
com/demo/moneytransferapi/utils/H2DatastoreFactory.class
com/demo/moneytransferapi/model/exception/MoneyTransferAPIException.class
com/demo/moneytransferapi/dao/TransferImplementation.class
com/demo/moneytransferapi/dao/AccountImplementation.class
com/demo/moneytransferapi/controller/TransferController.class
com/demo/moneytransferapi/model/DefaultAccountHolder.class
com/demo/moneytransferapi/model/exception/MoneyTransferAPIError.class
com/demo/moneytransferapi/utils/ConfigLoader.class
com/demo/moneytransferapi/dao/AccountHolder.class
com/demo/moneytransferapi/dao/AccountHolderImplementation.class
com/demo/moneytransferapi/dao/Transfer.class
com/demo/moneytransferapi/MoneyTransferApp.class
com/demo/moneytransferapi/model/DefaultAccount.class
com/demo/moneytransferapi/controller/AccountController.class
com/demo/moneytransferapi/controller/MoneyTransferAPIExceptionHandler.class
com/demo/moneytransferapi/model/DefaultTransfer.class
